^C:\USERS\DUVER\ONEDRIVE\BUREAU\CNAM\CPPCNAM\BUILD\CMAKEFILES\3.24.2\COMPILERIDCXX\CMAKECXXCOMPILERID.CPP
C:\WINDOWS\GLOBALIZATION\SORTING\SORTDEFAULT.NLS
C:\PROGRAM FILES\MICROSOFT VISUAL STUDIO\2022\COMMUNITY\VC\TOOLS\MSVC\14.33.31629\BIN\HOSTX64\X86\1036\CLUI.DLL
C:\WINDOWS\SYSTEM32\TZRES.DLL
